<?xml version="1.0" encoding="utf-8"?>
<!-- Generator: Adobe Illustrator 21.1.0, SVG Export Plug-In . SVG Version: 6.00 Build 0)  -->
<svg version="1.1" id="Layer_1" xmlns="http://www.w3.org/2000/svg" xmlns:xlink="http://www.w3.org/1999/xlink" x="0px" y="0px"
	 viewBox="0 0 800 219.6" style="enable-background:new 0 0 800 219.6;" xml:space="preserve">
<style type="text/css">
	.st0{fill:#FFFFFF;}
</style>
<g>
	<path class="st0" d="M30.9,42.7h58c20.2,0,25.1,10.8,25.1,25.4v6.3c0,11.1-4.5,23.7-19.6,23.7H52.2v18.6H30.9V42.7z M52.2,79.8
		h33.1c5,0,6.9-3.5,6.9-7.9V69c0-5-2.3-7.9-8.7-7.9H52.2V79.8z"/>
	<path class="st0" d="M124,68.7c0-21.7,11.4-26.8,30.6-26.8h34.1c19.2,0,30.6,5.1,30.6,26.8v22.1c0,21.7-11.4,26.8-30.6,26.8h-34.1
		c-19.2,0-30.6-5.1-30.6-26.8V68.7z M145.8,83.7c0,10.7,2.1,14.8,12.2,14.8h27.2c10.1,0,12.2-4.1,12.2-14.8v-8
		c0-9.2-2.1-14.8-13.3-14.8h-24.9c-11.2,0-13.3,5.6-13.3,14.8V83.7z"/>
	<path class="st0" d="M232.1,42.7h64.2c16.4,0,20.8,8.7,20.8,22v4.7c0,9.9-2.1,15.8-11.9,18.2v0.2c6.3,1.2,11.6,4.2,11.6,16.4v12.6
		h-21.3v-8.9c0-7.8-2.1-10.3-8.7-10.3h-33.5v19.2h-21.3V42.7z M253.4,79.1h35.2c5.8,0,7.9-2.5,7.9-7.8v-2.5c0-6.5-3.1-7.8-9.8-7.8
		h-33.3V79.1z"/>
	<path class="st0" d="M326.4,42.7h81.1v18.4h-29.9v55.7h-21.3V61.1h-29.9V42.7z"/>
	<path class="st0" d="M440.5,42.7h27.7l38.2,74.1h-23.7l-6.6-13.1h-43.1l-6.2,13.1h-23.8L440.5,42.7z M440.9,87.7h27.2l-13.8-27.8
		L440.9,87.7z"/>
	<path class="st0" d="M513.9,42.7h21.3v55.1H583v19h-69.1V42.7z"/>
	<path class="st0" d="M592,42.7h75.9v17.2h-54.6v11.9h51.8v15.4h-51.8V99h55.9v17.8H592V42.7z"/>
	<path class="st0" d="M680.8,92.5h21.3c0.1,7.9,3.1,8.5,9.2,8.5h26.1c4.5,0,9.1-0.5,9.1-6.2c0-6.4-2.5-6.9-29.9-6.9
		c-32,0-35.7-4.1-35.7-22.3c0-13.4,1.2-23.7,28-23.7h29.7c24.5,0,26.8,8.9,26.8,21.9v2.4h-21.3c0-5.4-0.6-7.7-10.4-7.7h-23.6
		c-4.8,0-8.1,1.7-8.1,5.7c0,6.4,2.6,6.7,25.4,6.5c33.1-0.1,40.7,2,40.7,23.6c0,20-6.3,23.2-34.6,23.2h-25.8
		c-19.4,0-27.1-3.9-27.1-20V92.5z"/>
</g>
<g>
	<path class="st0" d="M357.5,135.2h4.9v17.1h0.1c1-3.2,3.7-4.6,9.2-4.6h7.4c11.7,0,15.3,3.5,15.3,13.4v5.4c0,10.7-6.2,13-15,13h-6.8
		c-5.1,0-9.1-1.6-10.5-5.4H362v4.9h-4.5V135.2z M389.6,160.4c0-7.1-3.3-8.5-10-8.5H373c-6.6,0-10.6,1.2-10.6,8.6v5.9
		c0,5.6,2.3,8.9,9.6,8.9h7.9c7.9,0,9.7-2.8,9.7-8.8V160.4z"/>
	<path class="st0" d="M403.9,186.3c7.5,0,9.1-0.5,11.6-6.8h-1.2L398,148.2h5.5l14,27.3l12.6-27.3h5.3L419,182.9
		c-3,6.4-5,7.6-15.1,7.7V186.3z"/>
	<path class="st0" d="M488.1,135.2h6.9l24.4,43.8h-6.3l-5.1-9.3h-32.9l-5.1,9.3h-6.3L488.1,135.2z M491.5,140.1L477.8,165h27.5
		L491.5,140.1z"/>
	<path class="st0" d="M555.9,173.7h-0.1c-1.8,4.8-5.6,5.8-11.7,5.8h-7.3c-9.1,0-12-4.9-12-10.5v-20.9h4.9v19.6
		c0,4.5,1.2,7.5,10.7,7.5h1.2c11.4,0,14-2.3,14-9.6v-17.5h4.9v30.9h-4.5V173.7z"/>
	<path class="st0" d="M570,148.2h4.5v4.5h0.1c1.8-4,5.5-5,8.8-5h4.6c9.1,0,12.1,3.1,12.1,10.7v3.7h-4.5v-1.3c0-7.6-1.5-8.8-10.1-8.8
		h-3c-5.2,0-7.7,3.5-7.7,7.5v19.6H570V148.2z"/>
	<path class="st0" d="M635.9,176h-0.1c-1.3,2.8-2.8,3.6-10.3,3.6h-11.7c-7.4,0-9.3-3.4-9.3-9.3v-2.1c0-7,4.6-7.9,13.1-7.9h7.8
		c6.3,0,8.6,0.7,10.3,3.7h0.1v-5.8c0-5.6-3.3-6.3-10.8-6.3H618c-6.1,0-7.3,1.6-7.3,4.1v1.1h-4.9v-1.5c0-5.6,3.3-7.9,12.1-7.9h7.7
		c9.1,0,15.2,1.5,15.2,10.7v20.7h-4.9V176z M635.9,169.4c0-4.2-3.5-4.8-11-4.8h-7.5c-6.3,0-8,1-8,4.8v1c0,3.4,1.1,4.9,7.8,4.9h6.5
		c8.8,0,12.2-0.7,12.2-4.5V169.4z"/>
	<path class="st0" d="M649.4,148.2h4.5v5.3h0.1c1.8-4.8,5.6-5.8,11.7-5.8h7.3c9.1,0,12,4.9,12,10.5v20.9h-4.9v-19.6
		c0-4.5-1.2-7.5-10.7-7.5h-1.2c-11.4,0-14,2.3-14,9.6v17.5h-4.9V148.2z"/>
	<path class="st0" d="M692.9,160.2c0-11.2,7.3-12.5,14.2-12.5h7.8c8.7,0,15,2.4,15,13.4v3.4h-32.1v1.9c0,7,3.2,8.8,11.7,8.8h6.7
		c6.1,0,8.6-0.8,8.9-5.6h4.9v0.6c0,7.1-5.5,9.2-14.6,9.2h-8.8c-6.3,0-13.6-1.3-13.6-12.6V160.2z M725,158.2c0-3.1-2.2-6.3-10.1-6.3
		h-7.1c-7.7,0-9.5,1.3-10,8.4H725V158.2z"/>
	<path class="st0" d="M740.2,152.4h-6.3v-4.2h6.3v-7.3h4.9v7.3h19.3v4.2H745v15.4c0,5.7,1.9,7.5,7.2,7.5h1.5c6.5,0,7.5-1.5,7.5-7.9
		v-2.3h4v3.4c0,6.2-0.6,11.1-11.1,11.1h-2.7c-9.1,0-11.3-4.7-11.3-9.7V152.4z"/>
</g>
</svg>
